"name","code","hsc_code","description","category","related_category","group","old_price","new_price","price_for","gst","minimum_quantity","stock","attributes","attribute_values"
"tata steel22","tata12","hsc122","gud","Category22","Category11","Iron And Steel","100","200","kg","10","50","20","diameter,grade,material","10,1,steel"
"tata steel32","tata22","hsc123","gud","Category11","Category22","Electrical","50","100","kg","15","60","10","colour,type,brand","blue,steel,a4"
