name,description,category,group,old_price,new_price,price_for,stock,attributes,attribute_values
tata steel2,gud,Category22,Iron And Steel,0,200,kg,20,"diameter,grade,material","10,1,steel"
tata steel3,gud,Category11,Electrical,0,100,kg,10,"colour,type,brand","blue,steel,a4"
